{
  "type": "service_account",
  "project_id": "upheld-beach-343016",
  "private_key_id": "c094ea3b5ac13276094cf979d9d3c245fbe3eb23",
  "private_key": "-----BEGIN PRIVATE KEY-----\nMIIEvAIBADANBgkqhkiG9w0BAQEFAASCBKYwggSiAgEAAoIBAQCwcv/xX/sP4tgu\n4gzI5Xber5TtTf3jUGuvh5MxSnAu6lI+s8Ja9H1ftVvCNYaRUTkjLEzwxKf1tSL7\nfM6La61qavwjdI/iN0EiAbtiGY9phFRGL/X77tCCO0A9xo0IM+eQnLM+k0nVwLyw\nvcAZ8hcm1MkdOhngRuGneIr4xOHGWW0Dep572V8QK6VcdshjUUL+K9tef333wwuj\nmpe3GDfzG2OFcn1FJmzzJ7E8UR4WrNZj5okKc1yIDssL/ECcpfbq3tCuv+gWz5oe\nLrZyc1JjcjKCyU4y5PZiSsSBhtD22pbmfmruy7t4pFpKZoaUqA74d3gNrUVIQR9a\nhCBPc4o5AgMBAAECggEASJ2bPV/tt9T4eRrofgkJSY3i8WJmeRVQq/VUmzVyQ6yF\nWm6qLrptmmTNtXhHwCg4JoSFyZR1NwZrtinf6rrOrHwI9iJzUHrC4FbsIew4/AjM\nkfIM/riCsQXnY0UCJ30M8JO8pKUC/ugJ/4ant0XNR1rMxa1ylr01ArH2J3kHHZRi\ncOzuWsETdAsJuWVk4SdgBtOsdLPsgHA/0BZVB078kJyp3knnrVS7KC5rVdYoCG90\nKx4mtoGDvf6jP+TqxqahpI+ZTSp6h/+hHVYnA/zNUX8+9xYB5/6UP/Sd+Faz/qcr\n2yQ99HLsfp7nMkpLeeTNNtu8posN9q9SV99F7J4YvQKBgQDl++ikP4iMsCm8QVww\ngs3fY723n3RYEQNwJc2CnV3oyFYCVVxESQzFA8Xk8wQBiQErBCQz/uhTaKLn1RBK\nNWvYyDvU5DSkrBnV1+gbjWuWo2uHTH022mivi9SbAMv2q7/qm86Z8bvNN8f7R0gm\nQk70ObHt65v+HBMmNbBFEURpzwKBgQDEaMfK6cDGLVYTUhtlvwsNSLWx17MGf9xu\nZKzd1+chUQx8mao1KEoihVrCf3wKJLdsg8bop0VYa72KyPf0IRuvQt47XmECYBZa\nWQTyomZ+0fguG9DSp4SeGWEQFaXdCuaigylMpiXp96qvF3RkXQOaOL158Ae5figP\nRGGsaXm1dwKBgAYWqC8I+4118HTqag1iuR6L3m7pCsR2Ftg2N/2YOu85toUzS1EH\neg4RLoEEKfv8a4p+/pJd0jq7D20Bx/+e8G75xhO5wucFI1307FEmak2/n84iKUJ1\nf8X99q/v0naCT39fhpWuv6EMNAAj//X7VWnDyUEaNrQAfEVLsJHzhhMjAoGAQ6ZH\ncpeSw2+oHx1/vErSFrA9jNTbn9h4Zzmb5QlRXcNZxqzy2D5ZUoyWFznr0l6VIvY8\nk7PRicQKU/wmk1q3+2TPwKkgRr4r1NCmiJ/xJ6tQjSkdgwEaB458RRr/tyPjDoSY\nvALaOj0I+Cfe+hajgAIdGRvYvUY7rA6EiesGdb8CgYA6BeaCU4ECpTyHcgP/fD92\nAXlun52uWwVhwWrwIm2B5flBO5P/nsEFd6nEh3pKzsr1lGv6oij9zbbMzApzDnpu\n2mw4zlmUqyVeRjbQJRL9cIypyXNS9syIO0eoplLKrkztvXV/2Ctf4wAhzMW+o1Cn\nKqclRNEhCyXeXYslepr4CQ==\n-----END PRIVATE KEY-----\n",
  "client_email": "all-american-mf@upheld-beach-343016.iam.gserviceaccount.com",
  "client_id": "118394521165398829197",
  "auth_uri": "https://accounts.google.com/o/oauth2/auth",
  "token_uri": "https://oauth2.googleapis.com/token",
  "auth_provider_x509_cert_url": "https://www.googleapis.com/oauth2/v1/certs",
  "client_x509_cert_url": "https://www.googleapis.com/robot/v1/metadata/x509/all-american-mf%40upheld-beach-343016.iam.gserviceaccount.com"
}
